{
    "configs": [{
        "filename": "garment0.cfg",
        "distributions": ["quality-state-randomizer"]
    }, {
        "filename": "garment1.cfg",
        "distributions": ["quality-state-randomizer"]
    }, {
        "filename": "garment2.cfg",
        "distributions": [
            "quality-state-randomizer",
            "sewer-process-time-randomizer",
            "cutter-process-time-randomizer",
            "packager-process-time-randomizer",
            "assembler-process-time-randomizer",
            "quality-check-process-time-randomizer"
        ]
    }, {
        "filename": "garment3.cfg",
        "distributions": [
            "quality-state-randomizer",
            "sewer-process-time-randomizer",
            "cutter-process-time-randomizer",
            "packager-process-time-randomizer",
            "assembler-process-time-randomizer",
            "quality-check-process-time-randomizer"
        ]
    }]
}